{
	"info": {
		"_postman_id": "3967c542-3243-48bf-8b7b-2748ce85ad9e",
		"name": "Dynamic_Variable",
		"schema": "https://schema.getpostman.com/json/collection/v2.1.0/collection.json",
		"_exporter_id": "27794324"
	},
	"item": [
		{
			"name": "dynamic_variable",
			"event": [
				{
					"listen": "test",
					"script": {
						"exec": [
							"var responseBody = pm.response.json();\r",
							"console.log(responseBody);"
						],
						"type": "text/javascript"
					}
				},
				{
					"listen": "prerequest",
					"script": {
						"exec": [
							"var Name = pm.variables.replaceIn('{{$randomFullName}}')\r",
							"pm.collectionVariables.set(\"Coll_Name\", Name);\r",
							"\r",
							"var Job = pm.variables.replaceIn('{{$randomJobDescriptor}}');\r",
							"pm.collectionVariables.set(\"Coll_Job\", Job);\r",
							"\r",
							"var country = pm.variables.replaceIn('{{$randomCountry}}');\r",
							"pm.collectionVariables.set(\"Coll_country\" , country);\r",
							"\r",
							"var email = pm.variables.replaceIn('{{$randomEmail}}');\r",
							"pm.collectionVariables.set(\"Coll_email\" , email);\r",
							""
						],
						"type": "text/javascript"
					}
				}
			],
			"request": {
				"method": "POST",
				"header": [],
				"body": {
					"mode": "raw",
					"raw": "{\r\n   \"name\": \"{{Coll_Name}}\",\r\n    \"job\": \"{{Coll_Job}}\" ,\r\n     \"country\": \"{{Coll_country}}\" ,\r\n     \"email\": \"{{Coll_email}}\"\r\n}",
					"options": {
						"raw": {
							"language": "json"
						}
					}
				},
				"url": {
					"raw": "https://reqres.in/api/users",
					"protocol": "https",
					"host": [
						"reqres",
						"in"
					],
					"path": [
						"api",
						"users"
					]
				}
			},
			"response": []
		}
	],
	"event": [
		{
			"listen": "prerequest",
			"script": {
				"type": "text/javascript",
				"exec": [
					""
				]
			}
		},
		{
			"listen": "test",
			"script": {
				"type": "text/javascript",
				"exec": [
					""
				]
			}
		}
	],
	"variable": [
		{
			"key": "Coll_Name",
			"value": ""
		},
		{
			"key": "Coll_Job",
			"value": ""
		},
		{
			"key": "Coll_country",
			"value": ""
		},
		{
			"key": "Coll_con",
			"value": ""
		},
		{
			"key": "Coll_email",
			"value": ""
		},
		{
			"key": "name",
			"value": "",
			"type": "string"
		},
		{
			"key": "job",
			"value": "",
			"type": "string"
		},
		{
			"key": "country",
			"value": "",
			"type": "string"
		},
		{
			"key": "email",
			"value": "",
			"type": "string"
		},
		{
			"key": "start",
			"value": "0",
			"type": "string"
		},
		{
			"key": "end",
			"value": "5",
			"type": "string"
		},
		{
			"value": "",
			"type": "string"
		},
		{
			"key": "col_name,name",
			"value": ""
		},
		{
			"key": "col_name",
			"value": ""
		}
	]
}