{
	"info": {
		"_postman_id": "80a6d1e7-50dc-4c83-8596-c7bb7f474e69",
		"name": "post_reference",
		"schema": "https://schema.getpostman.com/json/collection/v2.1.0/collection.json",
		"_exporter_id": "27794324"
	},
	"item": [
		{
			"name": "post_tc 1",
			"event": [
				{
					"listen": "test",
					"script": {
						"exec": [
							"pm.test(\"Status code is 201\", function () {\r",
							"    pm.response.to.have.status(201);\r",
							"});\r",
							"var requestBody =pm.request.body.raw;\r",
							"console.log(requestBody);\r",
							"                                \r",
							"requestBody=JSON.parse(requestBody);\r",
							"var req_name= requestBody.name;\r",
							"var req_job= requestBody.job;\r",
							"\r",
							"\r",
							"\r",
							"\r",
							"\r",
							"var responseBody=pm.response.json();\r",
							"console.log(responseBody);\r",
							"\r",
							"var res_name=responseBody.name;\r",
							"var res_job= responseBody.job;\r",
							"var res_id= responseBody.id;\r",
							"\r",
							"pm.test (\"validate responseBody :name\" , function()\r",
							"    {\r",
							"       pm.expect(res_name).to.eqls(req_name);\r",
							"    }\r",
							")\r",
							"\r",
							"pm.test (\"validate responseBody :job\" , function()\r",
							"    {\r",
							"        pm.expect(res_job).to.eqls(req_job);\r",
							"    }\r",
							")\r",
							"pm.test (\"validate responseBody :id\" , function()\r",
							"    {\r",
							"        pm.expect(res_name).to.not.null;\r",
							"    }\r",
							")\r",
							"\r",
							"\r",
							"\r",
							"var res_createdAt = responseBody.createdAt;\r",
							"var date = new Date();\r",
							"var generatedDate = date.toISOString().slice(0,10);\r",
							"var currentDate= res_createdAt.slice(0,10);\r",
							"\r",
							"pm.test (\"validate responseBody :createdAt\" , function()\r",
							"    {\r",
							"        pm.expect(currentDate).to.eqls(generatedDate)\r",
							"    })\r",
							"\r",
							""
						],
						"type": "text/javascript"
					}
				},
				{
					"listen": "prerequest",
					"script": {
						"exec": [
							"var name = pm.variables.replaceIn('{{$randomFirstName}}')\r",
							"pm.collectionVariables.set(\"col_name\", name);"
						],
						"type": "text/javascript"
					}
				}
			],
			"request": {
				"method": "POST",
				"header": [],
				"body": {
					"mode": "raw",
					"raw": "{\r\n    \"name\": \"{{col_name}}\",\r\n    \"job\": \"tester\"\r\n}",
					"options": {
						"raw": {
							"language": "json"
						}
					}
				},
				"url": {
					"raw": "{{Post_URL}}",
					"host": [
						"{{Post_URL}}"
					]
				}
			},
			"response": []
		},
		{
			"name": "Post_TC2",
			"event": [
				{
					"listen": "test",
					"script": {
						"exec": [
							""
						],
						"type": "text/javascript"
					}
				}
			],
			"request": {
				"method": "POST",
				"header": [],
				"body": {
					"mode": "raw",
					"raw": "{\r\n    \"name\": \"pruthvi\",\r\n    \"job\": \"tester\"\r\n}",
					"options": {
						"raw": {
							"language": "json"
						}
					}
				},
				"url": {
					"raw": "{{Post_URL}}",
					"host": [
						"{{Post_URL}}"
					]
				}
			},
			"response": []
		}
	],
	"event": [
		{
			"listen": "prerequest",
			"script": {
				"type": "text/javascript",
				"exec": [
					""
				]
			}
		},
		{
			"listen": "test",
			"script": {
				"type": "text/javascript",
				"exec": [
					""
				]
			}
		}
	],
	"variable": [
		{
			"key": "Coll_Name",
			"value": ""
		},
		{
			"key": "Coll_Job",
			"value": ""
		},
		{
			"key": "Coll_country",
			"value": ""
		},
		{
			"key": "Coll_con",
			"value": ""
		},
		{
			"key": "Coll_email",
			"value": ""
		},
		{
			"key": "name",
			"value": "",
			"type": "string"
		},
		{
			"key": "job",
			"value": "",
			"type": "string"
		},
		{
			"key": "country",
			"value": "",
			"type": "string"
		},
		{
			"key": "email",
			"value": "",
			"type": "string"
		},
		{
			"key": "start",
			"value": "0",
			"type": "string"
		},
		{
			"key": "end",
			"value": "5",
			"type": "string"
		},
		{
			"value": "",
			"type": "string"
		},
		{
			"key": "col_name,name",
			"value": ""
		},
		{
			"key": "col_name",
			"value": ""
		}
	]
}